…
## Details

If both `end_col` and `measurement_length` are provided, `end_col` will
be ignored. Measurements either all have the same length (provide
`measurement_length`), or the length varies and `end_col` has to be
provided.

## Examples

``` r
data(co2_df_short, record_short)
flux_match(co2_df_short, record_short, datetime, start,
measurement_length = 180)
#> # A tibble: 1,080 × 11
#>    datetime            temp_air temp_soil  conc   PAR turfID       type 
#>    <dttm>                 <dbl>     <dbl> <dbl> <dbl> <chr>        <chr>
#>  1 2022-07-28 23:43:25    NA         NA    439. NA    156 AN2C 156 ER   
#>  2 2022-07-28 23:43:26     7.21      10.9  440.  2.29 156 AN2C 156 ER   
#>  3 2022-07-28 23:43:27    NA         NA    441. NA    156 AN2C 156 ER   
#>  4 2022-07-28 23:43:28    NA         NA    441. NA    156 AN2C 156 ER   
#>  5 2022-07-28 23:43:29    NA         NA    442. NA    156 AN2C 156 ER   
#>  6 2022-07-28 23:43:30    NA         NA    443. NA    156 AN2C 156 ER   
#>  7 2022-07-28 23:43:31    NA         NA    443. NA    156 AN2C 156 ER   
#>  8 2022-07-28 23:43:32    NA         NA    444. NA    156 AN2C 156 ER   
#>  9 2022-07-28 23:43:33    NA         NA    446. NA    156 AN2C 156 ER   
#> 10 2022-07-28 23:43:34    NA         NA    446. NA    156 AN2C 156 ER   
#> # ℹ 1,070 more rows
#> # ℹ 4 more variables: start <dttm>, f_start <dttm>, f_fluxid <fct>,
#> #   f_end <dttm>
```
