…
flux_quality(slopes, conc)
#> 
#>  Total number of measurements: 6
#> 
#>  ok   3   50 %
#>  discard      2   33 %
#>  zero     1   17 %
#>  force_discard    0   0 %
#>  start_error      0   0 %
#>  no_data      0   0 %
#>  force_ok     0   0 %
#>  force_zero   0   0 %
#>  force_lm     0   0 %
#>  no_slope     0   0 %
#> # A tibble: 1,251 × 36
#>    datetime            temp_air temp_soil  conc   PAR turfID       type 
#>    <dttm>                 <dbl>     <dbl> <dbl> <dbl> <fct>        <fct>
#>  1 2022-07-28 23:43:35    NA         NA    447. NA    156 AN2C 156 ER   
#>  2 2022-07-28 23:43:36     7.22      10.9  447.  1.68 156 AN2C 156 ER   
#>  3 2022-07-28 23:43:37    NA         NA    448. NA    156 AN2C 156 ER   
#>  4 2022-07-28 23:43:38    NA         NA    449. NA    156 AN2C 156 ER   
#>  5 2022-07-28 23:43:39    NA         NA    449. NA    156 AN2C 156 ER   
#>  6 2022-07-28 23:43:40    NA         NA    450. NA    156 AN2C 156 ER   
#>  7 2022-07-28 23:43:41    NA         NA    451. NA    156 AN2C 156 ER   
#>  8 2022-07-28 23:43:42    NA         NA    451. NA    156 AN2C 156 ER   
#>  9 2022-07-28 23:43:43    NA         NA    453. NA    156 AN2C 156 ER   
#> 10 2022-07-28 23:43:44    NA         NA    453. NA    156 AN2C 156 ER   
#> # ℹ 1,241 more rows
#> # ℹ 29 more variables: f_start <dttm>, f_end <dttm>, f_fluxid <fct>,
#> #   f_ratio <dbl>, f_flag_match <chr>, f_time <dbl>, f_cut <fct>,
#> #   f_rsquared_lm <dbl>, f_adj_rsquared_lm <dbl>, f_slope_lm <dbl>,
#> #   f_intercept_lm <dbl>, f_pvalue_lm <dbl>, f_fit_lm <dbl>, f_Cz <dbl>,
#> #   f_Cm <dbl>, f_a <dbl>, f_b <dbl>, f_tz <dbl>, f_slope <dbl>, f_fit <dbl>,
#> #   f_fit_slope <dbl>, f_start_z <dttm>, f_min_slope <dbl>, f_cor_coef <dbl>, …
```
