…
data(co2_fluxes_lrc)
flux_lrc(
fluxes_df = co2_fluxes_lrc,
type_col = type,
par_ave = PAR_ave,
f_flux = f_flux,
lrc_arg = "LRC",
nee_arg = "NEE",
er_arg = "ER",
lrc_group = c("warming"),
par_nee = 300,
par_er = 0
)
#> Joining with `by = join_by(warming)`
#> # A tibble: 488 × 6
#>      PAR_ave type  datetime            f_flux warming par_correction
#>        <dbl> <chr> <dttm>               <dbl> <chr>   <lgl>         
#>  1 1158.     NEE   2020-08-08 16:31:00 34.2   control TRUE          
#>  2 1158.     NEE   2020-08-08 16:31:00  0.489 control NA            
#>  3    0.0941 ER    2020-08-22 10:56:45 22.5   control TRUE          
#>  4    0.0941 ER    2020-08-22 10:56:45 22.5   control NA            
#>  5    0.119  ER    2020-08-22 11:00:15 29.9   control TRUE          
#>  6    0.119  ER    2020-08-22 11:00:15 29.9   control NA            
#>  7    0.131  ER    2020-08-22 11:03:30 26.3   control TRUE          
#>  8    0.131  ER    2020-08-22 11:03:30 26.3   control NA            
#>  9   81.9    NEE   2020-08-22 11:07:00 -1.73  control TRUE          
#> 10   81.9    NEE   2020-08-22 11:07:00 13.4   control NA            
#> # ℹ 478 more rows
```
