…
- temp_fahr:

  Air temperature inside the flux chamber in Fahrenheit averaged over
  the flux measurement.

- temp_kelvin:

  Air temperature inside the flux chamber in Kelvin averaged over the
  flux measurement.

## Examples

``` r
slopes0_temp
#> # A tibble: 1,251 × 29
#>    datetime            temp_air temp_soil  conc   PAR turfID       type 
#>    <dttm>                 <dbl>     <dbl> <dbl> <dbl> <fct>        <fct>
#>  1 2022-07-28 23:43:35    NA         NA    447. NA    156 AN2C 156 ER   
#>  2 2022-07-28 23:43:36     7.22      10.9  447.  1.68 156 AN2C 156 ER   
#>  3 2022-07-28 23:43:37    NA         NA    448. NA    156 AN2C 156 ER   
#>  4 2022-07-28 23:43:38    NA         NA    449. NA    156 AN2C 156 ER   
#>  5 2022-07-28 23:43:39    NA         NA    449. NA    156 AN2C 156 ER   
#>  6 2022-07-28 23:43:40    NA         NA    450. NA    156 AN2C 156 ER   
#>  7 2022-07-28 23:43:41    NA         NA    451. NA    156 AN2C 156 ER   
#>  8 2022-07-28 23:43:42    NA         NA    451. NA    156 AN2C 156 ER   
#>  9 2022-07-28 23:43:43    NA         NA    453. NA    156 AN2C 156 ER   
#> 10 2022-07-28 23:43:44    NA         NA    453. NA    156 AN2C 156 ER   
#> # ℹ 1,241 more rows
#> # ℹ 22 more variables: f_start <dttm>, f_end <dttm>, f_fluxid <fct>,
#> #   f_ratio <dbl>, f_flag_match <chr>, f_time <dbl>, f_cut <fct>, f_Cz <dbl>,
#> #   f_Cm <dbl>, f_a <dbl>, f_b <dbl>, f_tz <dbl>, f_slope <dbl>, f_fit <dbl>,
#> #   f_fit_slope <dbl>, f_start_z <dttm>, f_cor_coef <dbl>, f_RMSE <dbl>,
#> #   f_quality_flag <chr>, f_slope_corr <dbl>, temp_fahr <dbl>,
#> #   temp_kelvin <dbl>
```
